…
You can add multiple variables to a `count()` statement; the example
below is counting by order and vore:

    msleep %>% 
      count(order, vore, sort = TRUE)

    ## # A tibble: 32 x 3
    ##    order          vore        n
    ##    <chr>          <chr>   <int>
    ##  1 Rodentia       herbi      16
    ##  2 Carnivora      carni      12
    ##  3 Primates       omni       10
    ##  4 Artiodactyla   herbi       5
    ##  5 Cetacea        carni       3
    ##  6 Perissodactyla herbi       3
    ##  7 Rodentia       <NA>        3
    ##  8 Soricomorpha   omni        3
    ##  9 Chiroptera     insecti     2
    ## 10 Hyracoidea     herbi       2
    ## # ... with 22 more rows
…
    ## # A tibble: 1 x 1
    ##       n
    ##   <int>
    ## 1    83

More interesting is the `add_tally()` function which automatically adds
a column with the overall number of observations. This is will be the
same as `mutate(n = n())`.

    msleep %>% 
      select(1:3) %>% 
      add_tally()

    ## # A tibble: 83 x 4
    ##    name                       genus       vore      n
    ##    <chr>                      <chr>       <chr> <int>
    ##  1 Cheetah                    Acinonyx    carni    83
    ##  2 Owl monkey                 Aotus       omni     83
    ##  3 Mountain beaver            Aplodontia  herbi    83
    ##  4 Greater short-tailed shrew Blarina     omni     83
    ##  5 Cow                        Bos         herbi    83
    ##  6 Three-toed sloth           Bradypus    herbi    83
    ##  7 Northern fur seal          Callorhinus carni    83
    ##  8 Vesper mouse               Calomys     <NA>     83
    ##  9 Dog                        Canis       carni    83
    ## 10 Roe deer                   Capreolus   herbi    83
    ## # ... with 73 more rows

Even more interesting is `add_count()` which takes a variable as
argument, and adds a column which the number of observations. This saves
the combination of grouping and mutating.

    msleep %>% 
      select(1:3) %>% 
      add_count(vore)

    ## # A tibble: 83 x 4
    ##    name                       genus       vore      n
    ##    <chr>                      <chr>       <chr> <int>
    ##  1 Cheetah                    Acinonyx    carni    19
    ##  2 Owl monkey                 Aotus       omni     20
    ##  3 Mountain beaver            Aplodontia  herbi    32
    ##  4 Greater short-tailed shrew Blarina     omni     20
    ##  5 Cow                        Bos         herbi    32
    ##  6 Three-toed sloth           Bradypus    herbi    32
    ##  7 Northern fur seal          Callorhinus carni    19
    ##  8 Vesper mouse               Calomys     <NA>      7
    ##  9 Dog                        Canis       carni    19
    ## 10 Roe deer                   Capreolus   herbi    32
    ## # ... with 73 more rows
…
If you already grouped your data, you can refer to that group within the
`arrange()` statement as well by adding a `.by_group = TRUE` statement.
This will sort by descending total sleep time, but within each group.

    msleep %>% 
      select(order, name, sleep_total) %>% 
      group_by(order) %>% 
      arrange(desc(sleep_total), .by_group = TRUE)

    ## # A tibble: 83 x 3
    ## # Groups:   order [19]
    ##    order        name         sleep_total
    ##    <chr>        <chr>              <dbl>
    ##  1 Afrosoricida Tenrec             15.6 
    ##  2 Artiodactyla Pig                 9.10
    ##  3 Artiodactyla Goat                5.30
    ##  4 Artiodactyla Cow                 4.00
    ##  5 Artiodactyla Sheep               3.80
    ##  6 Artiodactyla Roe deer            3.00
    ##  7 Artiodactyla Giraffe             1.90
    ##  8 Carnivora    Tiger              15.8 
    ##  9 Carnivora    Lion               13.5 
    ## 10 Carnivora    Domestic cat       12.5 
    ## # ... with 73 more rows
…
