…
<br>

There is another option which avoids the continuous retyping of columns
names: `one_of()`. You can set up column names upfront, and then refer
to them inside a `select()` statement.

    classification_info <- c("name", "genus", "vore", "order", "conservation")
    sleep_cols <- c("sleep_total", "sleep_rem", "sleep_cycle")
    weight_cols <- c("brainwt", "bodywt")

    msleep %>%
      select(one_of(sleep_cols))

    ## # A tibble: 83 x 3
    ##    sleep_total sleep_rem sleep_cycle
    ##          <dbl>     <dbl>       <dbl>
    ##  1       12.1     NA          NA    
    ##  2       17.0      1.80       NA    
    ##  3       14.4      2.40       NA    
    ##  4       14.9      2.30        0.133
    ##  5        4.00     0.700       0.667
    ##  6       14.4      2.20        0.767
    ##  7        8.70     1.40        0.383
    ##  8        7.00    NA          NA    
    ##  9       10.1      2.90        0.333
    ## 10        3.00    NA          NA    
    ## # ... with 73 more rows
…
    msleep %>%
      select_if(is.numeric) %>%
      select_if(~mean(., na.rm=TRUE) > 10)

<br> or shorter:

    msleep %>%
      select_if(~is.numeric(.) & mean(., na.rm=TRUE) > 10)

    ## # A tibble: 83 x 3
    ##    sleep_total awake   bodywt
    ##          <dbl> <dbl>    <dbl>
    ##  1       12.1  11.9   50.0   
    ##  2       17.0   7.00   0.480 
    ##  3       14.4   9.60   1.35  
    ##  4       14.9   9.10   0.0190
    ##  5        4.00 20.0  600     
    ##  6       14.4   9.60   3.85  
    ##  7        8.70 15.3   20.5   
    ##  8        7.00 17.0    0.0450
    ##  9       10.1  13.9   14.0   
    ## 10        3.00 21.0   14.8   
    ## # ... with 73 more rows

<br>

One of the useful functions for `select_if` is `n_distinct()`, which
counts the amount of distinct values that can be found in a column.  
To return the columns that have less than 20 distinct answers for
instance you pass `~n_distinct(.) < 20` within the select\_if statement.
Given that `n_distinct(.) < 20` is not a function, you will need to put
a tilde in front.

    msleep %>%
      select_if(~n_distinct(.) < 10)

    ## # A tibble: 83 x 2
    ##    vore  conservation
    ##    <chr> <chr>       
    ##  1 carni lc          
    ##  2 omni  <NA>        
    ##  3 herbi nt          
    ##  4 omni  lc          
    ##  5 herbi domesticated
    ##  6 herbi <NA>        
    ##  7 carni vu          
    ##  8 <NA>  <NA>        
    ##  9 carni domesticated
    ## 10 herbi lc          
    ## # ... with 73 more rows
…
<br><br>

**Reformatting all column names**
---------------------------------

The `select_all()` function allows changes to all columns, and takes a
function as an argument.

To get all column names in uppercase, you can use `toupper()`, similarly
you could use `tolower()`.

    msleep %>%
      select_all(toupper)

    ## # A tibble: 83 x 11
    ##    NAME     GENUS  VORE  ORDER  CONSE~ SLEEP~ SLEEP~ SLEEP~ AWAKE  BRAINWT
    ##    <chr>    <chr>  <chr> <chr>  <chr>   <dbl>  <dbl>  <dbl> <dbl>    <dbl>
    ##  1 Cheetah  Acino~ carni Carni~ lc      12.1  NA     NA     11.9  NA      
    ##  2 Owl mon~ Aotus  omni  Prima~ <NA>    17.0   1.80  NA      7.00  1.55e-2
    ##  3 Mountai~ Aplod~ herbi Roden~ nt      14.4   2.40  NA      9.60 NA      
    ##  4 Greater~ Blari~ omni  Soric~ lc      14.9   2.30   0.133  9.10  2.90e-4
    ##  5 Cow      Bos    herbi Artio~ domes~   4.00  0.700  0.667 20.0   4.23e-1
    ##  6 Three-t~ Brady~ herbi Pilosa <NA>    14.4   2.20   0.767  9.60 NA      
    ##  7 Norther~ Callo~ carni Carni~ vu       8.70  1.40   0.383 15.3  NA      
    ##  8 Vesper ~ Calom~ <NA>  Roden~ <NA>     7.00 NA     NA     17.0  NA      
    ##  9 Dog      Canis  carni Carni~ domes~  10.1   2.90   0.333 13.9   7.00e-2
    ## 10 Roe deer Capre~ herbi Artio~ lc       3.00 NA     NA     21.0   9.82e-2
    ## # ... with 73 more rows, and 1 more variable: BODYWT <dbl>

<br>

You can go further than that by creating functions on the fly: if you
have messy column names coming from excel for instance you can replace
all white spaces with an underscore.

    #making an unclean database:
    msleep2 <- select(msleep, name, sleep_total, brainwt)
    colnames(msleep2) <- c("name", "sleep total", "brain weight")

    msleep2 %>%
      select_all(~str_replace(., " ", "_"))

    ## # A tibble: 83 x 3
    ##    name                       sleep_total brain_weight
    ##    <chr>                            <dbl>        <dbl>
    ##  1 Cheetah                          12.1     NA       
    ##  2 Owl monkey                       17.0      0.0155  
    ##  3 Mountain beaver                  14.4     NA       
    ##  4 Greater short-tailed shrew       14.9      0.000290
    ##  5 Cow                               4.00     0.423   
    ##  6 Three-toed sloth                 14.4     NA       
    ##  7 Northern fur seal                 8.70    NA       
    ##  8 Vesper mouse                      7.00    NA       
    ##  9 Dog                              10.1      0.0700  
    ## 10 Roe deer                          3.00     0.0982  
    ## # ... with 73 more rows
…
