…
Another function that can come in handy is `near()`, which will select
all code that is nearly a given value. You have to specify a tolerance
`tol` to indicate how far the values can be. You can add a specific
number: `filter(near(sleep_total, 17, tol = 0.5))` for instance will
return any rows where `sleep_total` is between 16.5 and 17.5, or you can
add a formula.  
The sample code will return all rows that are within one standard
deviation of 17.

    msleep %>% 
      select(name, sleep_total) %>% 
      filter(near(sleep_total, 17, tol = sd(sleep_total)))

    ## # A tibble: 26 x 2
    ##    name                       sleep_total
    ##    <chr>                            <dbl>
    ##  1 Owl monkey                        17.0
    ##  2 Mountain beaver                   14.4
    ##  3 Greater short-tailed shrew        14.9
    ##  4 Three-toed sloth                  14.4
    ##  5 Long-nosed armadillo              17.4
    ##  6 North American Opossum            18.0
    ##  7 Big brown bat                     19.7
    ##  8 Western american chipmunk         14.9
    ##  9 Thick-tailed opposum              19.4
    ## 10 Mongolian gerbil                  14.2
    ## # ... with 16 more rows
…
You can use the `%in%` operator to deselect certain groups as well, in
this case you have to negate by adding an exclamation mark at the
beginning of your `filter`. Making a `!%in%` might seem logic but it
won't work.

    remove <- c("Rodentia", "Carnivora", "Primates")
    msleep %>% 
      select(order, name, sleep_total) %>% 
      filter(!order %in% remove)

    ## # A tibble: 37 x 3
    ##    order           name                       sleep_total
    ##    <chr>           <chr>                            <dbl>
    ##  1 Soricomorpha    Greater short-tailed shrew       14.9 
    ##  2 Artiodactyla    Cow                               4.00
    ##  3 Pilosa          Three-toed sloth                 14.4 
    ##  4 Artiodactyla    Roe deer                          3.00
    ##  5 Artiodactyla    Goat                              5.30
    ##  6 Soricomorpha    Star-nosed mole                  10.3 
    ##  7 Soricomorpha    Lesser short-tailed shrew         9.10
    ##  8 Cingulata       Long-nosed armadillo             17.4 
    ##  9 Hyracoidea      Tree hyrax                        5.30
    ## 10 Didelphimorphia North American Opossum           18.0 
    ## # ... with 27 more rows
…
<br>

### **Filtering out empty rows**

To filter out empty rows, you negate the `is.na()` function inside a
filter:  
The sample code will remove any rows where `conservation` is `NA`.

    msleep %>% 
      select(name, conservation:sleep_cycle) %>% 
      filter(!is.na(conservation))

    ## # A tibble: 54 x 5
    ##    name                     conservation sleep_total sleep_rem sleep_cycle
    ##    <chr>                    <chr>              <dbl>     <dbl>       <dbl>
    ##  1 Cheetah                  lc                 12.1     NA          NA    
    ##  2 Mountain beaver          nt                 14.4      2.40       NA    
    ##  3 Greater short-tailed sh~ lc                 14.9      2.30        0.133
    ##  4 Cow                      domesticated        4.00     0.700       0.667
    ##  5 Northern fur seal        vu                  8.70     1.40        0.383
    ##  6 Dog                      domesticated       10.1      2.90        0.333
    ##  7 Roe deer                 lc                  3.00    NA          NA    
    ##  8 Goat                     lc                  5.30     0.600      NA    
    ##  9 Guinea pig               domesticated        9.40     0.800       0.217
    ## 10 Grivet                   lc                 10.0      0.700      NA    
    ## # ... with 44 more rows
…
The same can be done for numerical values: This code will retain any
rows that has any value below 0.1:

    msleep %>%  
      select(name, sleep_total:bodywt) %>% 
      filter_all(any_vars(. < 0.1))

    ## # A tibble: 47 x 7
    ##    name           sleep_total sleep_rem sleep_cycle awake  brainwt  bodywt
    ##    <chr>                <dbl>     <dbl>       <dbl> <dbl>    <dbl>   <dbl>
    ##  1 Owl monkey           17.0      1.80       NA      7.00  1.55e-2 4.80e-1
    ##  2 Greater short~       14.9      2.30        0.133  9.10  2.90e-4 1.90e-2
    ##  3 Vesper mouse          7.00    NA          NA     17.0  NA       4.50e-2
    ##  4 Dog                  10.1      2.90        0.333 13.9   7.00e-2 1.40e+1
    ##  5 Roe deer              3.00    NA          NA     21.0   9.82e-2 1.48e+1
    ##  6 Guinea pig            9.40     0.800       0.217 14.6   5.50e-3 7.28e-1
    ##  7 Chinchilla           12.5      1.50        0.117 11.5   6.40e-3 4.20e-1
    ##  8 Star-nosed mo~       10.3      2.20       NA     13.7   1.00e-3 6.00e-2
    ##  9 African giant~        8.30     2.00       NA     15.7   6.60e-3 1.00e+0
    ## 10 Lesser short-~        9.10     1.40        0.150 14.9   1.40e-4 5.00e-3
    ## # ... with 37 more rows
…
